%YAML 1.1
%TAG !u! tag:unity3d.com,2011:
--- !u!114 &11400000
MonoBehaviour:
  m_ObjectHideFlags: 0
  m_CorrespondingSourceObject: {fileID: 0}
  m_PrefabInstance: {fileID: 0}
  m_PrefabAsset: {fileID: 0}
  m_GameObject: {fileID: 0}
  m_Enabled: 1
  m_EditorHideFlags: 0
  m_Script: {fileID: 11500000, guid: aaff89a50f4982342a69e2d8164e69c7, type: 3}
  m_Name: Walk
  m_EditorClassIdentifier: 
  animationName: Walk
  meshes:
  - {fileID: 3858850539314900069, guid: 94f444aea17c041469c5fec123b62353, type: 3}
  - {fileID: 8764316276666802982, guid: 94f444aea17c041469c5fec123b62353, type: 3}
  - {fileID: -3498327127351185241, guid: 94f444aea17c041469c5fec123b62353, type: 3}
  - {fileID: 3907148377194607568, guid: 94f444aea17c041469c5fec123b62353, type: 3}
  - {fileID: -1027069127952695203, guid: 94f444aea17c041469c5fec123b62353, type: 3}
  - {fileID: 4087311159398252934, guid: 94f444aea17c041469c5fec123b62353, type: 3}
  fps: 8
