%YAML 1.1
%TAG !u! tag:unity3d.com,2011:
--- !u!114 &11400000
MonoBehaviour:
  m_ObjectHideFlags: 0
  m_CorrespondingSourceObject: {fileID: 0}
  m_PrefabInstance: {fileID: 0}
  m_PrefabAsset: {fileID: 0}
  m_GameObject: {fileID: 0}
  m_Enabled: 1
  m_EditorHideFlags: 0
  m_Script: {fileID: 11500000, guid: a9ac73a844a2ba849a5dbbad3f2289e3, type: 3}
  m_Name: Be Suprised
  m_EditorClassIdentifier: 
  emotion: {fileID: 11400000, guid: 3907b5d3b2918044986601ab716aa222, type: 2}
  duration: 1
