%YAML 1.1
%TAG !u! tag:unity3d.com,2011:
--- !u!114 &11400000
MonoBehaviour:
  m_ObjectHideFlags: 0
  m_CorrespondingSourceObject: {fileID: 0}
  m_PrefabInstance: {fileID: 0}
  m_PrefabAsset: {fileID: 0}
  m_GameObject: {fileID: 0}
  m_Enabled: 1
  m_EditorHideFlags: 0
  m_Script: {fileID: 11500000, guid: a8ebd8a22a6a7a74b8bf1a01510d4316, type: 3}
  m_Name: Debardeur
  m_EditorClassIdentifier: 
  noun: Debardeur
  slot: 3
  prefab: {fileID: -927199367670048503, guid: 8bdcdeb72be36d24b81b9060da7c8df0, type: 3}
